[
  {
    "image": "1.jpg",
    "name": "IPhone 11 Pro Max",
    "price": 95700,
    "article": "T1",
    "memory": "Память: 4/256Gb",
    "firm": "APPLE",
    "category": 101

  },
  {
    "image": "2.jpg",
    "name": "IPhone 11 Pro",
    "price": 85300,
    "article": "T2",
    "memory": "Память: 4/256Gb",
    "firm": "APPLE",
    "category": 102


  },
  {
    "image": "3.jpg",
    "name": "IPhone 11",
    "price": 55400,
    "article": "T3",
    "memory": "Память: 4/128Gb",
    "firm": "APPLE",
    "category": 103
  },
  {
    "image": "4.jpg",
    "name": "IPhone Xr",
    "price": 48100,
    "article": "T4",
    "memory": "Память: 3/128Gb",
    "firm": "APPLE",
    "category": 104
  },
  {
    "image": "5.jpg",
    "name": "IPhone Xr",
    "price": 45100,
    "article": "T5",
    "memory": "Память: 3/64Gb",
    "firm": "APPLE",
    "category": 105
  },
  {
    "image": "6.jpg",
    "name": "IPhone 8 Plus",
    "price": 42100,
    "article": "T6",
    "memory": "Память: 3/128Gb",
    "firm": "APPLE",
    "category": 106
  },
  {
    "image": "7.jpg",
    "name": "IPhone SE",
    "price": 37800,
    "article": "T7",
    "memory": "Память: 3/128Gb",
    "firm": "APPLE",
    "category": 107
  },

  {
    "image": "8.jpg",
    "name": "IPhone 8",
    "price": 35700,
    "article": "T8",
    "memory": "Память: 3/128Gb",
    "firm": "APPLE",
    "category": 109
  },
  {
    "image": "9.jpg",
    "name": "IPhone 7",
    "price": 28900,
    "article": "T9",
    "memory": "Память: 2/128Gb",
    "firm": "APPLE",
    "category": 109
  },
  {
    "image": "10.jpg",
    "name": "Galaxy S20 Ultra",
    "price": 70900,
    "article": "T10",
    "memory": "Память: 12/128Gb",
    "firm": "SAMSUNG",
    "category": 210
  },
  {
    "image": "11.jpg",
    "name": "Galaxy S20",
    "price": 52300,
    "article": "T11",
    "memory": "Память: 8/128Gb",
    "firm": "SAMSUNG",
    "category": 211
  },
  {
    "image": "12.jpg",
    "name": "Galaxy S10 Lite",
    "price": 34900,
    "article": "T12",
    "memory": "Память: 6/128Gb",
    "firm": "SAMSUNG",
    "category": 212
  },
  {
    "image": "13.jpg",
    "name": "Galaxy Note 10 Lite",
    "price": 31700,
    "article": "T13",
    "memory": "Память: 6/128Gb",
    "firm": "SAMSUNG",
    "category": 213
  },
  {
    "image": "14.jpg",
    "name": "Galaxy M31S",
    "price": 22700,
    "article": "T14",
    "memory": "Память: 6/128Gb",
    "firm": "SAMSUNG",
    "category": 214
  },
  {
    "image": "15.jpg",
    "name": "Galaxy A71",
    "price": 21800,
    "article": "T15",
    "memory": "Память: 6/128Gb",
    "firm": "SAMSUNG",
    "category": 215
  },
  {
    "image": "16.jpg",
    "name": "Galaxy M11",
    "price": 10200,
    "article": "T16",
    "memory": "Память: 3/32Gb",
    "firm": "SAMSUNG",
    "category": 216
  },
  {
    "image": "17.jpg",
    "name": "Galaxy A20",
    "price": 9700,
    "article": "T17",
    "memory": "Память: 3/32Gb",
    "firm": "SAMSUNG",
    "category": 217
  },
  {
    "image": "18.jpg",
    "name": "Galaxy A10",
    "price": 6800,
    "article": "T18",
    "memory": "Память: 2/32Gb",
    "firm": "SAMSUNG",
    "category": 218
  },
  {
    "image": "19.jpg",
    "name": "Mi Note 10 Lite",
    "price": 24900,
    "article": "T19",
    "memory": "Память: 6/128Gb",
    "firm": "XIAOMI",
    "category": 319
  },
  {
    "image": "20.png",
    "name": "Redmi Note 9pro",
    "price": 20600,
    "article": "T20",
    "memory": "Память: 6/128Gb",
    "firm": "XIAOMI",
    "category": 320
  },
  {
    "image": "21.png",
    "name": "Redmi Note 8pro",
    "price": 17500,
    "article": "T21",
    "memory": "Память: 6/128Gb",
    "firm": "XIAOMI",
    "category": 321
  },
  {
    "image": "22.jpg",
    "name": "Redmi Note 9S",
    "price": 15700,
    "article": "T22",
    "memory": "Память: 4/64Gb",
    "firm": "XIAOMI",
    "category": 322
  },
  {
    "image": "23.jpg",
    "name": "Redmi Note 9",
    "price": 12700,
    "article": "T23",
    "memory": "Память: 3/64Gb",
    "firm": "XIAOMI",
    "category": 323
  },
  {
    "image": "24.jpg",
    "name": "Redmi 9",
    "price": 10700,
    "article": "T24",
    "memory": "Память: 4/64Gb",
    "firm": "XIAOMI",
    "category": 324
  },
  {
    "image": "25.jpg",
    "name": "Redmi 9",
    "price": 10700,
    "article": "T25",
    "memory": "Память: 4/64Gb",
    "firm": "XIAOMI",
    "category": 325
  },
  {
    "image": "26.png",
    "name": "Redmi 9",
    "price": 9400,
    "article": "T26",
    "memory": "Память: 3/64Gb",
    "firm": "XIAOMI",
    "category": 326
  },
  {
    "image": "27.jpg",
    "name": "Redmi 9A",
    "price": 7100,
    "article": "T27",
    "memory": "Память: 2/32Gb",
    "firm": "XIAOMI",
    "category": 327
  }
]
